SEQ/writeback/writeback_output.vcd
$date
	Sun Feb 18 00:30:46 2024
$end
$version
	Icarus Verilog
$end
$timescale
	1s
$end
$scope module writeback_64_tb $end
$var wire 960 ! Regout [959:0] $end
$var reg 960 " Regin [959:0] $end
$var reg 4 # b [3:0] $end
$var reg 1 $ clk $end
$var reg 4 % i [3:0] $end
$var reg 4 & icode [3:0] $end
$var reg 4 ' ifun [3:0] $end
$var reg 4 ( rA [3:0] $end
$var reg 4 ) rB [3:0] $end
$var reg 64 * valA [63:0] $end
$var reg 64 + valB [63:0] $end
$var reg 64 , valE [63:0] $end
$var reg 64 - valM [63:0] $end
$scope module writeback1 $end
$var wire 960 . Regin [959:0] $end
$var wire 1 $ clk $end
$var wire 4 / icode [3:0] $end
$var wire 4 0 ifun [3:0] $end
$var wire 4 1 rA [3:0] $end
$var wire 4 2 rB [3:0] $end
$var wire 64 3 valA [63:0] $end
$var wire 64 4 valB [63:0] $end
$var wire 64 5 valE [63:0] $end
$var wire 64 6 valM [63:0] $end
$var reg 960 7 Reg [959:0] $end
$var reg 4 8 i [3:0] $end
$upscope $end
$upscope $end
$enddefinitions $end
#0
$dumpvars
b1111 8
bx000000000001110000000000001101000000000001100000000000001011000000000001010000000000001001000000000001000000000000000111000000000000110000000000000101000000000000100000000000000011000000000000010000000000000001000000000000000 7
bx 6
bx 5
bx 4
bx 3
bx 2
bx 1
bx 0
bx /
bx000000000001110000000000001101000000000001100000000000001011000000000001010000000000001001000000000001000000000000000111000000000000110000000000000101000000000000100000000000000011000000000000010000000000000001000000000000000 .
bx -
bx ,
bx +
bx *
bx )
bx (
bx '
bx &
b1111 %
1$
b0 #
bx000000000001110000000000001101000000000001100000000000001011000000000001010000000000001001000000000001000000000000000111000000000000110000000000000101000000000000100000000000000011000000000000010000000000000001000000000000000 "
bx000000000001110000000000001101000000000001100000000000001011000000000001010000000000001001000000000001000000000000000111000000000000110000000000000101000000000000100000000000000011000000000000010000000000000001000000000000000 !
$end
#5
0$
#10
bx000000000001110000000000001101000000000001100000000000001011000000000001010000000000001001000000000001000000000000000111000000000000110000000000000101000000000000100000000000110001000000000000010000000000000001000000000000000 "
bx000000000001110000000000001101000000000001100000000000001011000000000001010000000000001001000000000001000000000000000111000000000000110000000000000101000000000000100000000000110001000000000000010000000000000001000000000000000 .
b1111 %
bx000000000001110000000000001101000000000001100000000000001011000000000001010000000000001001000000000001000000000000000111000000000000110000000000000101000000000000100000000000110001000000000000010000000000000001000000000000000 !
bx000000000001110000000000001101000000000001100000000000001011000000000001010000000000001001000000000001000000000000000111000000000000110000000000000101000000000000100000000000110001000000000000010000000000000001000000000000000 7
b1111 8
1$
b110001 -
b110001 6
b110010 ,
b110010 5
b10100 +
b10100 4
b1010 *
b1010 3
b101 &
b101 /
b1001 )
b1001 2
b11 (
b11 1
#15
0$
#20
bx000000000001110000000000001101000000000001100000000000001011000000000110011000000000001001000000000001000000000000000111000000000000110000000000000101000000000000100000000000110001000000000000010000000000000001000000000000000 "
bx000000000001110000000000001101000000000001100000000000001011000000000110011000000000001001000000000001000000000000000111000000000000110000000000000101000000000000100000000000110001000000000000010000000000000001000000000000000 .
b1111 %
bx000000000001110000000000001101000000000001100000000000001011000000000110011000000000001001000000000001000000000000000111000000000000110000000000000101000000000000100000000000110001000000000000010000000000000001000000000000000 !
bx000000000001110000000000001101000000000001100000000000001011000000000110011000000000001001000000000001000000000000000111000000000000110000000000000101000000000000100000000000110001000000000000010000000000000001000000000000000 7
b1111 8
1$
b101001 -
b101001 6
b110011 ,
b110011 5
b10101 +
b10101 4
b1011 *
b1011 3
b10 &
b10 /
b1010 )
b1010 2
b100 (
b100 1
#25
0$
#30
bx000000000001110000000000001101000000000001100000000000001011000000000110011000000000001001000000000001000000000000000111000000000000110000000000000101000000000111011000000000110001000000000000010000000000000001000000000000000 "
bx000000000001110000000000001101000000000001100000000000001011000000000110011000000000001001000000000001000000000000000111000000000000110000000000000101000000000111011000000000110001000000000000010000000000000001000000000000000 .
b1111 %
bx000000000001110000000000001101000000000001100000000000001011000000000110011000000000001001000000000001000000000000000111000000000000110000000000000101000000000111011000000000110001000000000000010000000000000001000000000000000 !
bx000000000001110000000000001101000000000001100000000000001011000000000110011000000000001001000000000001000000000000000111000000000000110000000000000101000000000111011000000000110001000000000000010000000000000001000000000000000 7
b1111 8
1$
b101000 -
b101000 6
b111011 ,
b111011 5
b10100 +
b10100 4
b1010 *
b1010 3
b1001 &
b1001 /
b1001 )
b1001 2
b11 (
b11 1
#35
0$
#40
bx000000000001110000000000001101000000000001100000000000001011000000000110011000000000001001000000000001000000000000000111000000000000110000000000000101000000000111011000000000110001000000000111001000000000000001000000000000000 "
bx000000000001110000000000001101000000000001100000000000001011000000000110011000000000001001000000000001000000000000000111000000000000110000000000000101000000000111011000000000110001000000000111001000000000000001000000000000000 .
b1111 %
bx000000000001110000000000001101000000000001100000000000001011000000000110011000000000001001000000000001000000000000000111000000000000110000000000000101000000000111011000000000110001000000000111001000000000000001000000000000000 !
bx000000000001110000000000001101000000000001100000000000001011000000000110011000000000001001000000000001000000000000000111000000000000110000000000000101000000000111011000000000110001000000000111001000000000000001000000000000000 7
b1111 8
1$
b111001 ,
b111001 5
b11 &
b11 /
b10 )
b10 2
#45
0$
#50
bx000000000001110000000000001101000000000001100000000000001011000000000110011000000000001001000000000001000000000000000111000000000000110000000000000101000000000110010000000000110001000000000111001000000000000001000000000000000 "
bx000000000001110000000000001101000000000001100000000000001011000000000110011000000000001001000000000001000000000000000111000000000000110000000000000101000000000110010000000000110001000000000111001000000000000001000000000000000 .
b1111 %
bx000000000001110000000000001101000000000001100000000000001011000000000110011000000000001001000000000001000000000000000111000000000000110000000000000101000000000110010000000000110001000000000111001000000000000001000000000000000 !
bx000000000001110000000000001101000000000001100000000000001011000000000110011000000000001001000000000001000000000000000111000000000000110000000000000101000000000110010000000000110001000000000111001000000000000001000000000000000 7
b1111 8
1$
b110010 ,
b110010 5
b1000 &
b1000 /
b1001 )
b1001 2
#55
0$
#60
bx000000000001110000000000001101000000000001100000000000001011000000000110011000000000001001000000000001000000000000000111000000000000110000000000000101000000001001100000000000110001000000000111001000000000000001000000000000000 "
bx000000000001110000000000001101000000000001100000000000001011000000000110011000000000001001000000000001000000000000000111000000000000110000000000000101000000001001100000000000110001000000000111001000000000000001000000000000000 .
b1111 %
bx000000000001110000000000001101000000000001100000000000001011000000000110011000000000001001000000000001000000000000000111000000000000110000000000000101000000001001100000000000110001000000000111001000000000000001000000000000000 !
bx000000000001110000000000001101000000000001100000000000001011000000000110011000000000001001000000000001000000000000000111000000000000110000000000000101000000001001100000000000110001000000000111001000000000000001000000000000000 7
b1111 8
1$
b1001100 ,
b1001100 5
b1010 &
b1010 /
#65
0$
#70
bx000000000001110000000000001101000000000001100000000000001011000000000110011000000000110010000000000001000000000000000111000000000000110000000000000101000000001001100000000000110001000000000111001000000000000001000000000000000 "
bx000000000001110000000000001101000000000001100000000000001011000000000110011000000000110010000000000001000000000000000111000000000000110000000000000101000000001001100000000000110001000000000111001000000000000001000000000000000 .
b1111 %
bx000000000001110000000000001101000000000001100000000000001011000000000110011000000000110010000000000001000000000000000111000000000000110000000000000101000000001001100000000000110001000000000111001000000000000001000000000000000 !
bx000000000001110000000000001101000000000001100000000000001011000000000110011000000000110010000000000001000000000000000111000000000000110000000000000101000000001001100000000000110001000000000111001000000000000001000000000000000 7
b1111 8
1$
b110010 ,
b110010 5
b110 &
b110 /
#75
0$
#80
bx000000000001110000000000001101000000000001100000000000001011000000000110011000000000110010000000000001000000000000000111000000000000110000000000000101000000000110010000000000101000000000000111001000000000000001000000000000000 "
bx000000000001110000000000001101000000000001100000000000001011000000000110011000000000110010000000000001000000000000000111000000000000110000000000000101000000000110010000000000101000000000000111001000000000000001000000000000000 .
b1111 %
bx000000000001110000000000001101000000000001100000000000001011000000000110011000000000110010000000000001000000000000000111000000000000110000000000000101000000000110010000000000101000000000000111001000000000000001000000000000000 !
bx000000000001110000000000001101000000000001100000000000001011000000000110011000000000110010000000000001000000000000000111000000000000110000000000000101000000000110010000000000101000000000000111001000000000000001000000000000000 7
b1111 8
1$
b1011 &
b1011 /
